{
    "Sectors": [
        {
            "name": "Commercial Services",
            "image": "",
            "dividends": "0.91%",
            "change1d": "0.69%",
            "marketCap": "1.577T",
            "volume": "9.907M"
        },
        {
            "name": "Communications",
            "image": "",
            "dividends": "4.03%",
            "change1d": "0.54%",
            "marketCap": "876.04B",
            "volume": "20.715M"
        },
        {
            "name": "Consumer Durables",
            "image": "",
            "dividends": "1.35%",
            "change1d": "1.98%",
            "marketCap": "1.414T",
            "volume": "64.92M"
        },
        {
            "name": "Consumer Non-Durables",
            "image": "",
            "dividends": "2.75%",
            "change1d": "0.86%",
            "marketCap": "2.88T",
            "volume": "10.59M"
        },
        {
            "name": "Consumer Services",
            "image": "",
            "dividends": "1.13%",
            "change1d": "1.15%",
            "marketCap": "1.926T",
            "volume": "9.484M"
        },
        {
            "name": "Distribution Services",
            "image": "",
            "dividends": "1.49%",
            "change1d": "1.23%",
            "marketCap": "466.735B",
            "volume": "4.877M"
        },
        {
            "name": "Electronic Technology",
            "image": "",
            "dividends": "1.11%",
            "change1d": "0.66%",
            "marketCap": "7.352T",
            "volume": "48.628M"
        },
        {
            "name": "Energy Minerals",
            "image": "",
            "dividends": "7.47%",
            "change1d": "1.37%",
            "marketCap": "2.441T",
            "volume": "18.132M"
        },
        {
            "name": "Finance",
            "image": "",
            "dividends": "2.85%",
            "change1d": "3.01%",
            "marketCap": "8.473T",
            "volume": "13.856M"
        },
        {
            "name": "Health Services",
            "image": "",
            "dividends": "1.13%",
            "change1d": "0.96%",
            "marketCap": "1.013T",
            "volume": "3.68M"
        },
        {
            "name": "Health Technology",
            "image": "",
            "dividends": "1.68%",
            "change1d": "1.21%",
            "marketCap": "5.569T",
            "volume": "10.645M"
        },
        {
            "name": "Industrial Services",
            "image": "",
            "dividends": "4.32%",
            "change1d": "1.77%",
            "marketCap": "818.112B",
            "volume": "8.484M"
        },
        {
            "name": "Miscellaneous",
            "image": "",
            "dividends": "7.16%",
            "change1d": "0.58%",
            "marketCap": "203.746B",
            "volume": "579.644K"
        },
        {
            "name": "Non-Energy Minerals",
            "image": "",
            "dividends": "3.89%",
            "change1d": "0.54%",
            "marketCap": "1.029T",
            "volume": "9.98M"
        },
        {
            "name": "Process Industries",
            "image": "",
            "dividends": "2.47%",
            "change1d": "1.88%",
            "marketCap": "1.042T",
            "volume": "4.816M"
        },
        {
            "name": "Producer Manufacturing",
            "image": "",
            "dividends": "1.57%",
            "change1d": "2.09%",
            "marketCap": "1.76T",
            "volume": "4.508M"
        },
        {
            "name": "Retail Trade",
            "image": "",
            "dividends": "1.00%",
            "change1d": "0.83%",
            "marketCap": "3.555T",
            "volume": "31.83M"
        },
        {
            "name": "Technology Services",
            "image": "",
            "dividends": "0.53%",
            "change1d": "0.06%",
            "marketCap": "9.434T",
            "volume": "39.853M"
        },
        {
            "name": "Transportation",
            "image": "",
            "dividends": "2.05%",
            "change1d": "1.28%",
            "marketCap": "1.106T",
            "volume": "9.596M"
        },
        {
            "name": "Utilities",
            "image": "",
            "dividends": "3.58%",
            "change1d": "1.22%",
            "marketCap": "1.44T",
            "volume": "6.54M"
        }
    ]
}