{
  "Industries": [
    {
      "name": "Advertising/Marketing Services",
      "dividends": "3.13%",
      "change1d": "2.20%",
      "marketCap": "50.387B",
      "volume": "1.819M",
      "sector": "Commercial Services",
      "image": ""
    },
    {
      "name": "Aerospace & Defense",
      "dividends": "1.48%",
      "change1d": "1.70%",
      "marketCap": "911.036B",
      "volume": "2.255M",
      "sector": "Electronic Technology",
      "image": ""
    },
    {
      "name": "Agricultural Commodities/Milling",
      "dividends": "2.27%",
      "change1d": "2.21%",
      "marketCap": "84.275B",
      "volume": "2.695M",
      "sector": "Process Industries",
      "image": ""
    },
    {
      "name": "Air Freight/Couriers",
      "dividends": "2.60%",
      "change1d": "\u22121.53%",
      "marketCap": "274.139B",
      "volume": "3.352M",
      "sector": "Transportation",
      "image": ""
    },
    {
      "name": "Airlines",
      "dividends": "0.42%",
      "change1d": "0.43%",
      "marketCap": "102.332B",
      "volume": "6.758M",
      "sector": "Transportation",
      "image": ""
    },
    {
      "name": "Alternative Power Generation",
      "dividends": "3.54%",
      "change1d": "\u22120.14%",
      "marketCap": "44.257B",
      "volume": "1.615M",
      "sector": "Utilities",
      "image": ""
    },
    {
      "name": "Aluminum",
      "dividends": "1.18%",
      "change1d": "2.32%",
      "marketCap": "11.987B",
      "volume": "5.462M",
      "sector": "Non-Energy Minerals",
      "image": ""
    },
    {
      "name": "Apparel/Footwear",
      "dividends": "1.27%",
      "change1d": "0.50%",
      "marketCap": "277.666B",
      "volume": "5.886M",
      "sector": "Consumer Non-Durables",
      "image": ""
    },
    {
      "name": "Apparel/Footwear Retail",
      "dividends": "1.58%",
      "change1d": "0.65%",
      "marketCap": "188.713B",
      "volume": "3.393M",
      "sector": "Retail Trade",
      "image": ""
    },
    {
      "name": "Auto Parts: OEM",
      "dividends": "1.36%",
      "change1d": "0.92%",
      "marketCap": "107.821B",
      "volume": "1.338M",
      "sector": "Producer Manufacturing",
      "image": ""
    },
    {
      "name": "Automotive Aftermarket",
      "dividends": "1.36%",
      "change1d": "0.84%",
      "marketCap": "21.821B",
      "volume": "2.071M",
      "sector": "Consumer Durables",
      "image": ""
    },
    {
      "name": "Beverages: Alcoholic",
      "dividends": "1.71%",
      "change1d": "1.30%",
      "marketCap": "385.084B",
      "volume": "3.619M",
      "sector": "Consumer Non-Durables",
      "image": ""
    },
    {
      "name": "Beverages: Non-Alcoholic",
      "dividends": "2.54%",
      "change1d": "1.18%",
      "marketCap": "682.258B",
      "volume": "7.372M",
      "sector": "Consumer Non-Durables",
      "image": ""
    },
    {
      "name": "Biotechnology",
      "dividends": "1.44%",
      "change1d": "1.13%",
      "marketCap": "594.601B",
      "volume": "2.086M",
      "sector": "Health Technology",
      "image": ""
    },
    {
      "name": "Broadcasting",
      "dividends": "2.86%",
      "change1d": "1.78%",
      "marketCap": "90.023B",
      "volume": "4.467M",
      "sector": "Consumer Services",
      "image": ""
    },
    {
      "name": "Building Products",
      "dividends": "1.77%",
      "change1d": "1.56%",
      "marketCap": "128.027B",
      "volume": "1.004M",
      "sector": "Producer Manufacturing",
      "image": ""
    },
    {
      "name": "Cable/Satellite TV",
      "dividends": "1.81%",
      "change1d": "0.53%",
      "marketCap": "277.027B",
      "volume": "11.725M",
      "sector": "Consumer Services",
      "image": ""
    },
    {
      "name": "Casinos/Gaming",
      "dividends": "0.16%",
      "change1d": "0.68%",
      "marketCap": "107.759B",
      "volume": "2.719M",
      "sector": "Consumer Services",
      "image": ""
    },
    {
      "name": "Catalog/Specialty Distribution",
      "dividends": "\u2014",
      "change1d": "\u22127.65%",
      "marketCap": "97.636M",
      "volume": "14.315K",
      "sector": "Retail Trade",
      "image": ""
    },
    {
      "name": "Chemicals: Agricultural",
      "dividends": "2.63%",
      "change1d": "1.44%",
      "marketCap": "144.311B",
      "volume": "2.715M",
      "sector": "Process Industries",
      "image": ""
    },
    {
      "name": "Chemicals: Major Diversified",
      "dividends": "2.98%",
      "change1d": "1.66%",
      "marketCap": "68.933B",
      "volume": "2.273M",
      "sector": "Process Industries",
      "image": ""
    },
    {
      "name": "Chemicals: Specialty",
      "dividends": "2.44%",
      "change1d": "2.14%",
      "marketCap": "479.652B",
      "volume": "2.026M",
      "sector": "Process Industries",
      "image": ""
    },
    {
      "name": "Coal",
      "dividends": "2.49%",
      "change1d": "1.91%",
      "marketCap": "34.694B",
      "volume": "2.471M",
      "sector": "Energy Minerals",
      "image": ""
    },
    {
      "name": "Commercial Printing/Forms",
      "dividends": "2.20%",
      "change1d": "0.62%",
      "marketCap": "19.126B",
      "volume": "625.763K",
      "sector": "Commercial Services",
      "image": ""
    },
    {
      "name": "Computer Communications",
      "dividends": "\u2014",
      "change1d": "0.75%",
      "marketCap": "54.716B",
      "volume": "4.376M",
      "sector": "Electronic Technology",
      "image": ""
    },
    {
      "name": "Computer Peripherals",
      "dividends": "1.25%",
      "change1d": "0.85%",
      "marketCap": "111.103B",
      "volume": "2.718M",
      "sector": "Electronic Technology",
      "image": ""
    },
    {
      "name": "Computer Processing Hardware",
      "dividends": "1.64%",
      "change1d": "2.04%",
      "marketCap": "199.498B",
      "volume": "3.72M",
      "sector": "Electronic Technology",
      "image": ""
    },
    {
      "name": "Construction Materials",
      "dividends": "1.47%",
      "change1d": "1.66%",
      "marketCap": "106.906B",
      "volume": "904.999K",
      "sector": "Non-Energy Minerals",
      "image": ""
    },
    {
      "name": "Consumer Sundries",
      "dividends": "\u2014",
      "change1d": "1.70%",
      "marketCap": "4.164B",
      "volume": "143.31K",
      "sector": "Consumer Non-Durables",
      "image": ""
    },
    {
      "name": "Containers/Packaging",
      "dividends": "2.93%",
      "change1d": "2.27%",
      "marketCap": "141.472B",
      "volume": "2.028M",
      "sector": "Process Industries",
      "image": ""
    },
    {
      "name": "Contract Drilling",
      "dividends": "2.01%",
      "change1d": "2.97%",
      "marketCap": "120.451B",
      "volume": "8.644M",
      "sector": "Industrial Services",
      "image": ""
    },
    {
      "name": "Data Processing Services",
      "dividends": "1.42%",
      "change1d": "1.41%",
      "marketCap": "307.458B",
      "volume": "1.77M",
      "sector": "Technology Services",
      "image": ""
    },
    {
      "name": "Department Stores",
      "dividends": "2.78%",
      "change1d": "\u22120.71%",
      "marketCap": "18.873B",
      "volume": "3.903M",
      "sector": "Retail Trade",
      "image": ""
    },
    {
      "name": "Discount Stores",
      "dividends": "0.63%",
      "change1d": "1.72%",
      "marketCap": "89.647B",
      "volume": "2.181M",
      "sector": "Retail Trade",
      "image": ""
    },
    {
      "name": "Drugstore Chains",
      "dividends": "3.84%",
      "change1d": "0.82%",
      "marketCap": "125.087B",
      "volume": "6.023M",
      "sector": "Retail Trade",
      "image": ""
    },
    {
      "name": "Electric Utilities",
      "dividends": "3.63%",
      "change1d": "0.82%",
      "marketCap": "1.223T",
      "volume": "3.611M",
      "sector": "Utilities",
      "image": ""
    },
    {
      "name": "Electrical Products",
      "dividends": "1.37%",
      "change1d": "1.75%",
      "marketCap": "251.087B",
      "volume": "1.387M",
      "sector": "Producer Manufacturing",
      "image": ""
    },
    {
      "name": "Electronic Components",
      "dividends": "1.62%",
      "change1d": "1.43%",
      "marketCap": "102.056B",
      "volume": "2.524M",
      "sector": "Electronic Technology",
      "image": ""
    },
    {
      "name": "Electronic Equipment/Instruments",
      "dividends": "1.06%",
      "change1d": "1.45%",
      "marketCap": "191.391B",
      "volume": "1.354M",
      "sector": "Electronic Technology",
      "image": ""
    },
    {
      "name": "Electronic Production Equipment",
      "dividends": "0.60%",
      "change1d": "1.18%",
      "marketCap": "74.124B",
      "volume": "3.02M",
      "sector": "Electronic Technology",
      "image": ""
    },
    {
      "name": "Electronics Distributors",
      "dividends": "1.05%",
      "change1d": "1.19%",
      "marketCap": "23.284B",
      "volume": "549.236K",
      "sector": "Distribution Services",
      "image": ""
    },
    {
      "name": "Electronics/Appliance Stores",
      "dividends": "3.69%",
      "change1d": "1.76%",
      "marketCap": "22.487B",
      "volume": "3.415M",
      "sector": "Retail Trade",
      "image": ""
    },
    {
      "name": "Electronics/Appliances",
      "dividends": "2.08%",
      "change1d": "\u22120.68%",
      "marketCap": "22.236B",
      "volume": "3.588M",
      "sector": "Consumer Durables",
      "image": ""
    },
    {
      "name": "Engineering & Construction",
      "dividends": "0.39%",
      "change1d": "1.26%",
      "marketCap": "115.736B",
      "volume": "693.358K",
      "sector": "Industrial Services",
      "image": ""
    },
    {
      "name": "Environmental Services",
      "dividends": "1.31%",
      "change1d": "0.86%",
      "marketCap": "137.676B",
      "volume": "1.349M",
      "sector": "Industrial Services",
      "image": ""
    },
    {
      "name": "Finance/Rental/Leasing",
      "dividends": "2.08%",
      "change1d": "0.83%",
      "marketCap": "366.747B",
      "volume": "2.609M",
      "sector": "Finance",
      "image": ""
    },
    {
      "name": "Financial Conglomerates",
      "dividends": "1.22%",
      "change1d": "1.09%",
      "marketCap": "339.113B",
      "volume": "7.743M",
      "sector": "Finance",
      "image": ""
    },
    {
      "name": "Financial Publishing/Services",
      "dividends": "1.04%",
      "change1d": "\u22120.30%",
      "marketCap": "172.418B",
      "volume": "1.354M",
      "sector": "Commercial Services",
      "image": ""
    },
    {
      "name": "Food Distributors",
      "dividends": "0.60%",
      "change1d": "0.32%",
      "marketCap": "16.995B",
      "volume": "1.893M",
      "sector": "Distribution Services",
      "image": ""
    },
    {
      "name": "Food Retail",
      "dividends": "1.87%",
      "change1d": "0.51%",
      "marketCap": "61.4B",
      "volume": "5.047M",
      "sector": "Retail Trade",
      "image": ""
    },
    {
      "name": "Food: Major Diversified",
      "dividends": "3.16%",
      "change1d": "1.05%",
      "marketCap": "119.131B",
      "volume": "4.013M",
      "sector": "Consumer Non-Durables",
      "image": ""
    },
    {
      "name": "Food: Meat/Fish/Dairy",
      "dividends": "2.95%",
      "change1d": "0.46%",
      "marketCap": "43.23B",
      "volume": "2.664M",
      "sector": "Consumer Non-Durables",
      "image": ""
    },
    {
      "name": "Food: Specialty/Candy",
      "dividends": "2.15%",
      "change1d": "1.65%",
      "marketCap": "350.527B",
      "volume": "3.312M",
      "sector": "Consumer Non-Durables",
      "image": ""
    },
    {
      "name": "Forest Products",
      "dividends": "0.85%",
      "change1d": "0.75%",
      "marketCap": "27.109B",
      "volume": "433.902K",
      "sector": "Non-Energy Minerals",
      "image": ""
    },
    {
      "name": "Gas Distributors",
      "dividends": "3.86%",
      "change1d": "0.79%",
      "marketCap": "124.871B",
      "volume": "928.54K",
      "sector": "Utilities",
      "image": ""
    },
    {
      "name": "Home Furnishings",
      "dividends": "2.29%",
      "change1d": "1.40%",
      "marketCap": "20.508B",
      "volume": "1.266M",
      "sector": "Consumer Durables",
      "image": ""
    },
    {
      "name": "Home Improvement Chains",
      "dividends": "2.54%",
      "change1d": "0.21%",
      "marketCap": "433.926B",
      "volume": "3.234M",
      "sector": "Retail Trade",
      "image": ""
    },
    {
      "name": "Homebuilding",
      "dividends": "1.09%",
      "change1d": "\u22120.47%",
      "marketCap": "164.787B",
      "volume": "1.355M",
      "sector": "Consumer Durables",
      "image": ""
    },
    {
      "name": "Hospital/Nursing Management",
      "dividends": "0.93%",
      "change1d": "2.21%",
      "marketCap": "106.543B",
      "volume": "1.169M",
      "sector": "Health Services",
      "image": ""
    },
    {
      "name": "Hotels/Resorts/Cruise lines",
      "dividends": "0.82%",
      "change1d": "1.30%",
      "marketCap": "204.625B",
      "volume": "4.369M",
      "sector": "Consumer Services",
      "image": ""
    },
    {
      "name": "Household/Personal Care",
      "dividends": "2.58%",
      "change1d": "1.47%",
      "marketCap": "735.403B",
      "volume": "5.137M",
      "sector": "Consumer Non-Durables",
      "image": ""
    },
    {
      "name": "Industrial Conglomerates",
      "dividends": "5.51%",
      "change1d": "1.24%",
      "marketCap": "68.789B",
      "volume": "3.164M",
      "sector": "Producer Manufacturing",
      "image": ""
    },
    {
      "name": "Industrial Machinery",
      "dividends": "1.25%",
      "change1d": "1.62%",
      "marketCap": "772.272B",
      "volume": "2.593M",
      "sector": "Producer Manufacturing",
      "image": ""
    },
    {
      "name": "Industrial Specialties",
      "dividends": "1.52%",
      "change1d": "1.40%",
      "marketCap": "125.477B",
      "volume": "1.036M",
      "sector": "Process Industries",
      "image": ""
    },
    {
      "name": "Information Technology Services",
      "dividends": "1.67%",
      "change1d": "0.51%",
      "marketCap": "819.536B",
      "volume": "3.907M",
      "sector": "Technology Services",
      "image": ""
    },
    {
      "name": "Insurance Brokers/Services",
      "dividends": "1.11%",
      "change1d": "1.33%",
      "marketCap": "239.157B",
      "volume": "1.291M",
      "sector": "Finance",
      "image": ""
    },
    {
      "name": "Integrated Oil",
      "dividends": "8.71%",
      "change1d": "1.77%",
      "marketCap": "1.708T",
      "volume": "13.208M",
      "sector": "Energy Minerals",
      "image": ""
    },
    {
      "name": "Internet Retail",
      "dividends": "0.09%",
      "change1d": "\u22122.01%",
      "marketCap": "1.639T",
      "volume": "44.179M",
      "sector": "Retail Trade",
      "image": ""
    },
    {
      "name": "Internet Software/Services",
      "dividends": "0.04%",
      "change1d": "\u22120.10%",
      "marketCap": "3.669T",
      "volume": "25.057M",
      "sector": "Technology Services",
      "image": ""
    },
    {
      "name": "Investment Banks/Brokers",
      "dividends": "2.61%",
      "change1d": "0.58%",
      "marketCap": "846.6B",
      "volume": "13.547M",
      "sector": "Finance",
      "image": ""
    },
    {
      "name": "Investment Managers",
      "dividends": "4.06%",
      "change1d": "0.14%",
      "marketCap": "563.497B",
      "volume": "3.009M",
      "sector": "Finance",
      "image": ""
    },
    {
      "name": "Investment Trusts/Mutual Funds",
      "dividends": "7.16%",
      "change1d": "0.21%",
      "marketCap": "203.27B",
      "volume": "469.259K",
      "sector": "Miscellaneous",
      "image": ""
    },
    {
      "name": "Life/Health Insurance",
      "dividends": "3.63%",
      "change1d": "2.86%",
      "marketCap": "68.905B",
      "volume": "2.305M",
      "sector": "Finance",
      "image": ""
    },
    {
      "name": "Major Banks",
      "dividends": "4.21%",
      "change1d": "0.91%",
      "marketCap": "2.146T",
      "volume": "20.903M",
      "sector": "Finance",
      "image": ""
    },
    {
      "name": "Major Telecommunications",
      "dividends": "6.03%",
      "change1d": "1.65%",
      "marketCap": "432.312B",
      "volume": "15.873M",
      "sector": "Communications",
      "image": ""
    },
    {
      "name": "Managed Health Care",
      "dividends": "1.28%",
      "change1d": "1.31%",
      "marketCap": "751.243B",
      "volume": "2.513M",
      "sector": "Health Services",
      "image": ""
    },
    {
      "name": "Marine Shipping",
      "dividends": "9.54%",
      "change1d": "1.83%",
      "marketCap": "50.751B",
      "volume": "1.278M",
      "sector": "Transportation",
      "image": ""
    },
    {
      "name": "Media Conglomerates",
      "dividends": "\u2014",
      "change1d": "\u22120.34%",
      "marketCap": "17.893B",
      "volume": "1.747M",
      "sector": "Consumer Services",
      "image": ""
    },
    {
      "name": "Medical Distributors",
      "dividends": "0.73%",
      "change1d": "1.56%",
      "marketCap": "217.902B",
      "volume": "4.523M",
      "sector": "Distribution Services",
      "image": ""
    },
    {
      "name": "Medical Specialties",
      "dividends": "0.80%",
      "change1d": "1.06%",
      "marketCap": "1.732T",
      "volume": "2.093M",
      "sector": "Health Technology",
      "image": ""
    },
    {
      "name": "Medical/Nursing Services",
      "dividends": "0.41%",
      "change1d": "0.42%",
      "marketCap": "95.51B",
      "volume": "2.101M",
      "sector": "Health Services",
      "image": ""
    },
    {
      "name": "Metal Fabrication",
      "dividends": "1.00%",
      "change1d": "1.72%",
      "marketCap": "27.298B",
      "volume": "380.58K",
      "sector": "Producer Manufacturing",
      "image": ""
    },
    {
      "name": "Miscellaneous",
      "dividends": "3.60%",
      "change1d": "\u22122.20%",
      "marketCap": "932.715M",
      "volume": "188.8K",
      "sector": "Miscellaneous",
      "image": ""
    },
    {
      "name": "Miscellaneous Commercial Services",
      "dividends": "0.77%",
      "change1d": "0.51%",
      "marketCap": "1.309T",
      "volume": "5.944M",
      "sector": "Commercial Services",
      "image": ""
    },
    {
      "name": "Miscellaneous Manufacturing",
      "dividends": "1.47%",
      "change1d": "0.24%",
      "marketCap": "29.408B",
      "volume": "1.009M",
      "sector": "Producer Manufacturing",
      "image": ""
    },
    {
      "name": "Motor Vehicles",
      "dividends": "1.28%",
      "change1d": "1.31%",
      "marketCap": "1.126T",
      "volume": "72.339M",
      "sector": "Consumer Durables",
      "image": ""
    },
    {
      "name": "Movies/Entertainment",
      "dividends": "0.05%",
      "change1d": "1.11%",
      "marketCap": "332.664B",
      "volume": "4.222M",
      "sector": "Consumer Services",
      "image": ""
    },
    {
      "name": "Multi-Line Insurance",
      "dividends": "2.46%",
      "change1d": "2.77%",
      "marketCap": "481.709B",
      "volume": "3.252M",
      "sector": "Finance",
      "image": ""
    },
    {
      "name": "Office Equipment/Supplies",
      "dividends": "4.49%",
      "change1d": "\u22121.40%",
      "marketCap": "2.864B",
      "volume": "863.566K",
      "sector": "Producer Manufacturing",
      "image": ""
    },
    {
      "name": "Oil & Gas Pipelines",
      "dividends": "7.67%",
      "change1d": "0.71%",
      "marketCap": "389.229B",
      "volume": "4.814M",
      "sector": "Industrial Services",
      "image": ""
    },
    {
      "name": "Oil & Gas Production",
      "dividends": "4.64%",
      "change1d": "2.11%",
      "marketCap": "547.931B",
      "volume": "5.473M",
      "sector": "Energy Minerals",
      "image": ""
    },
    {
      "name": "Oil Refining/Marketing",
      "dividends": "4.46%",
      "change1d": "1.66%",
      "marketCap": "190.312B",
      "volume": "4.345M",
      "sector": "Energy Minerals",
      "image": ""
    },
    {
      "name": "Oilfield Services/Equipment",
      "dividends": "1.65%",
      "change1d": "2.47%",
      "marketCap": "65.355B",
      "volume": "6.66M",
      "sector": "Industrial Services",
      "image": ""
    },
    {
      "name": "Other Consumer Services",
      "dividends": "0.42%",
      "change1d": "1.08%",
      "marketCap": "354.041B",
      "volume": "1.918M",
      "sector": "Consumer Services",
      "image": ""
    },
    {
      "name": "Other Consumer Specialties",
      "dividends": "1.58%",
      "change1d": "1.74%",
      "marketCap": "6.016B",
      "volume": "120.097K",
      "sector": "Consumer Durables",
      "image": ""
    },
    {
      "name": "Other Metals/Minerals",
      "dividends": "4.65%",
      "change1d": "3.06%",
      "marketCap": "260.849B",
      "volume": "4.957M",
      "sector": "Non-Energy Minerals",
      "image": ""
    },
    {
      "name": "Other Transportation",
      "dividends": "1.08%",
      "change1d": "0.54%",
      "marketCap": "156.59B",
      "volume": "7.549M",
      "sector": "Transportation",
      "image": ""
    },
    {
      "name": "Packaged Software",
      "dividends": "0.65%",
      "change1d": "\u22121.07%",
      "marketCap": "4.589T",
      "volume": "21.23M",
      "sector": "Technology Services",
      "image": ""
    },
    {
      "name": "Personnel Services",
      "dividends": "1.66%",
      "change1d": "1.51%",
      "marketCap": "32.841B",
      "volume": "583.031K",
      "sector": "Commercial Services",
      "image": ""
    },
    {
      "name": "Pharmaceuticals: Generic",
      "dividends": "\u2014",
      "change1d": "1.81%",
      "marketCap": "12.721B",
      "volume": "15.097M",
      "sector": "Health Technology",
      "image": ""
    },
    {
      "name": "Pharmaceuticals: Major",
      "dividends": "2.20%",
      "change1d": "1.37%",
      "marketCap": "3.27T",
      "volume": "5.468M",
      "sector": "Health Technology",
      "image": ""
    },
    {
      "name": "Pharmaceuticals: Other",
      "dividends": "0.01%",
      "change1d": "1.48%",
      "marketCap": "28.699B",
      "volume": "301.52K",
      "sector": "Health Technology",
      "image": ""
    },
    {
      "name": "Precious Metals",
      "dividends": "2.09%",
      "change1d": "1.01%",
      "marketCap": "240.201B",
      "volume": "7.706M",
      "sector": "Non-Energy Minerals",
      "image": ""
    },
    {
      "name": "Property/Casualty Insurance",
      "dividends": "0.25%",
      "change1d": "2.70%",
      "marketCap": "1.556T",
      "volume": "2.804M",
      "sector": "Finance",
      "image": ""
    },
    {
      "name": "Publishing: Books/Magazines",
      "dividends": "2.81%",
      "change1d": "0.68%",
      "marketCap": "13.226B",
      "volume": "317.742K",
      "sector": "Consumer Services",
      "image": ""
    },
    {
      "name": "Publishing: Newspapers",
      "dividends": "1.21%",
      "change1d": "1.33%",
      "marketCap": "25.578B",
      "volume": "1.332M",
      "sector": "Consumer Services",
      "image": ""
    },
    {
      "name": "Pulp & Paper",
      "dividends": "4.55%",
      "change1d": "0.41%",
      "marketCap": "14.047B",
      "volume": "752.775K",
      "sector": "Process Industries",
      "image": ""
    },
    {
      "name": "Railroads",
      "dividends": "1.97%",
      "change1d": "0.27%",
      "marketCap": "376.217B",
      "volume": "3.567M",
      "sector": "Transportation",
      "image": ""
    },
    {
      "name": "Real Estate Development",
      "dividends": "0.41%",
      "change1d": "0.41%",
      "marketCap": "92.314B",
      "volume": "1.055M",
      "sector": "Finance",
      "image": ""
    },
    {
      "name": "Real Estate Investment Trusts",
      "dividends": "4.75%",
      "change1d": "1.24%",
      "marketCap": "1.189T",
      "volume": "2.411M",
      "sector": "Finance",
      "image": ""
    },
    {
      "name": "Recreational Products",
      "dividends": "1.92%",
      "change1d": "0.24%",
      "marketCap": "41.838B",
      "volume": "1.091M",
      "sector": "Consumer Durables",
      "image": ""
    },
    {
      "name": "Regional Banks",
      "dividends": "2.49%",
      "change1d": "0.25%",
      "marketCap": "608.635B",
      "volume": "6.055M",
      "sector": "Finance",
      "image": ""
    },
    {
      "name": "Restaurants",
      "dividends": "1.95%",
      "change1d": "1.16%",
      "marketCap": "523.782B",
      "volume": "2.423M",
      "sector": "Consumer Services",
      "image": ""
    },
    {
      "name": "Savings Banks",
      "dividends": "4.90%",
      "change1d": "5.41%",
      "marketCap": "35.55B",
      "volume": "18.087M",
      "sector": "Finance",
      "image": ""
    },
    {
      "name": "Semiconductors",
      "dividends": "1.25%",
      "change1d": "1.04%",
      "marketCap": "2.935T",
      "volume": "18.869M",
      "sector": "Electronic Technology",
      "image": ""
    },
    {
      "name": "Services to the Health Industry",
      "dividends": "0.81%",
      "change1d": "0.95%",
      "marketCap": "73.095B",
      "volume": "1.045M",
      "sector": "Health Services",
      "image": ""
    },
    {
      "name": "Specialty Insurance",
      "dividends": "4.04%",
      "change1d": "3.87%",
      "marketCap": "35.353B",
      "volume": "1.429M",
      "sector": "Finance",
      "image": ""
    },
    {
      "name": "Specialty Stores",
      "dividends": "1.26%",
      "change1d": "0.98%",
      "marketCap": "977.493B",
      "volume": "5.396M",
      "sector": "Retail Trade",
      "image": ""
    },
    {
      "name": "Specialty Telecommunications",
      "dividends": "3.99%",
      "change1d": "1.46%",
      "marketCap": "54.496B",
      "volume": "870.03K",
      "sector": "Communications",
      "image": ""
    },
    {
      "name": "Steel",
      "dividends": "5.39%",
      "change1d": "1.71%",
      "marketCap": "393.516B",
      "volume": "5.436M",
      "sector": "Non-Energy Minerals",
      "image": ""
    },
    {
      "name": "Telecommunications Equipment",
      "dividends": "0.83%",
      "change1d": "1.53%",
      "marketCap": "2.861T",
      "volume": "65.996M",
      "sector": "Electronic Technology",
      "image": ""
    },
    {
      "name": "Textiles",
      "dividends": "1.23%",
      "change1d": "1.13%",
      "marketCap": "3.178B",
      "volume": "206.299K",
      "sector": "Process Industries",
      "image": ""
    },
    {
      "name": "Tobacco",
      "dividends": "6.75%",
      "change1d": "1.64%",
      "marketCap": "315.107B",
      "volume": "6.902M",
      "sector": "Consumer Non-Durables",
      "image": ""
    },
    {
      "name": "Tools & Hardware",
      "dividends": "3.42%",
      "change1d": "1.77%",
      "marketCap": "24.852B",
      "volume": "1.238M",
      "sector": "Consumer Durables",
      "image": ""
    },
    {
      "name": "Trucking",
      "dividends": "0.73%",
      "change1d": "0.25%",
      "marketCap": "141.838B",
      "volume": "691.713K",
      "sector": "Transportation",
      "image": ""
    },
    {
      "name": "Trucks/Construction/Farm Machinery",
      "dividends": "1.67%",
      "change1d": "2.41%",
      "marketCap": "402.025B",
      "volume": "2.108M",
      "sector": "Producer Manufacturing",
      "image": ""
    },
    {
      "name": "Water Utilities",
      "dividends": "2.00%",
      "change1d": "0.39%",
      "marketCap": "58.934B",
      "volume": "1.368M",
      "sector": "Utilities",
      "image": ""
    },
    {
      "name": "Wholesale Distributors",
      "dividends": "2.37%",
      "change1d": "1.55%",
      "marketCap": "215.13B",
      "volume": "1.372M",
      "sector": "Distribution Services",
      "image": ""
    },
    {
      "name": "Wireless Telecommunications",
      "dividends": "1.89%",
      "change1d": "2.03%",
      "marketCap": "400.462B",
      "volume": "3.252M",
      "sector": "Communications",
      "image": ""
    }
  ]
}
